1  1  457.5513
1  2  55.2208
1  3  -962.3885
1  4  -490.5453
1  5  -6.7068
1  6  1.7379e-011
1  7  -8.8158e-012
1  8  3.4644e-005
2  1  55.2208
2  2  10.2068
2  3  -152.1127
2  4  -94.0487
2  5  -0.24274
2  6  8.2516e-013
2  7  -4.3357e-013
2  8  9.7379e-006
3  1  -962.3885
3  2  -152.1127
3  3  2401.8013
3  4  1400.5739
3  5  8.9319
3  6  -1.2747e-010
3  7  1.86e-011
3  8  -0.0010487
4  1  -490.5453
4  2  -94.0487
4  3  1400.5739
4  4  886.834
4  5  2.2993
4  6  0.00087295
4  7  -8.6988e-005
4  8  0.013195
5  1  -6.7068
5  2  -0.24274
5  3  8.9319
5  4  2.2993
5  5  0.47661
5  6  -3.4921e-010
5  7  -4.3255e-010
5  8  1.1907e-005
6  1  -3.4431e-012
6  2  -5.8943e-013
6  3  7.9584e-012
6  4  0.00087294
6  5  -7.2832e-013
6  6  0.00073108
6  7  -7.2687e-006
6  8  -0.018806
7  1  1.063e-012
7  2  5.058e-013
7  3  -4.5256e-012
7  4  -8.6988e-005
7  5  1.3349e-014
7  6  -7.2687e-006
7  7  2.9502e-005
7  8  -0.00011077
8  1  3.4644e-005
8  2  9.7379e-006
8  3  -0.0010487
8  4  0.013195
8  5  1.1907e-005
8  6  -0.018806
8  7  -0.00011078
8  8  0.89131
